Frequenz (Hz)	Pegel (dB)
23,437500	-19,998932
46,875000	-14,586826
70,312500	-15,333596
93,750000	-17,486988
117,187500	-20,752268
140,625000	-22,254137
164,062500	-22,713718
187,500000	-24,994158
210,937500	-24,990620
234,375000	-22,832405
257,812500	-26,830141
281,250000	-25,697184
304,687500	-24,490166
328,125000	-24,931259
351,562500	-22,509581
375,000000	-25,669964
398,437500	-25,727118
421,875000	-28,825743
445,312500	-23,787086
468,750000	-21,102991
492,187500	-25,298391
515,625000	-22,526657
539,062500	-24,445974
562,500000	-26,916494
585,937500	-22,393301
609,375000	-25,382978
632,812500	-29,931864
656,250000	-35,788036
679,687500	-27,315838
703,125000	-24,496788
726,562500	-31,461227
750,000000	-34,865665
773,437500	-29,854271
796,875000	-31,053640
820,312500	-36,904781
843,750000	-35,948513
867,187500	-29,687389
890,625000	-27,259954
914,062500	-24,038359
937,500000	-21,729465
960,937500	-26,546385
984,375000	-31,410992
1007,812500	-31,598438
1031,250000	-25,853203
1054,687500	-25,163155
1078,125000	-31,777594
1101,562500	-36,205948
1125,000000	-35,576756
1148,437500	-30,239979
1171,875000	-27,259939
1195,312500	-30,252781
1218,750000	-35,864483
1242,187500	-36,279686
1265,625000	-37,728821
1289,062500	-39,157379
1312,500000	-39,423969
1335,937500	-40,018536
1359,375000	-38,033058
1382,812500	-34,515221
1406,250000	-34,029819
1429,687500	-37,819149
1453,125000	-36,707607
1476,562500	-35,842575
1500,000000	-39,441334
1523,437500	-38,722389
1546,875000	-33,001392
1570,312500	-31,033463
1593,750000	-35,473186
1617,187500	-39,627262
1640,625000	-40,439430
1664,062500	-41,775978
1687,500000	-40,590012
1710,937500	-38,673061
1734,375000	-35,272198
1757,812500	-33,714565
1781,250000	-35,629677
1804,687500	-38,340336
1828,125000	-38,546707
1851,562500	-34,341892
1875,000000	-33,075924
1898,437500	-36,830593
1921,875000	-37,133648
1945,312500	-34,959240
1968,750000	-34,676994
1992,187500	-37,059826
2015,625000	-37,186356
2039,062500	-35,256149
2062,500000	-33,492954
2085,937500	-30,820044
2109,375000	-32,592552
2132,812500	-36,624905
2156,250000	-38,957668
2179,687500	-40,158802
2203,125000	-40,832302
2226,562500	-40,836197
2250,000000	-41,358128
2273,437500	-41,450459
2296,875000	-39,586971
2320,312500	-36,569664
2343,750000	-33,982273
2367,187500	-34,506500
2390,625000	-37,439144
2414,062500	-38,144913
2437,500000	-35,567570
2460,937500	-36,966049
2484,375000	-39,417446
2507,812500	-40,737957
2531,250000	-41,679256
2554,687500	-40,188633
2578,125000	-39,477024
2601,562500	-38,335228
2625,000000	-37,510834
2648,437500	-38,625233
2671,875000	-40,973347
2695,312500	-41,112724
2718,750000	-37,920124
2742,187500	-37,070477
2765,625000	-37,203827
2789,062500	-34,981945
2812,500000	-36,066544
2835,937500	-40,080437
2859,375000	-41,243618
2882,812500	-41,440010
2906,250000	-40,250042
2929,687500	-38,498051
2953,125000	-39,007484
2976,562500	-39,874088
3000,000000	-40,003384
3023,437500	-40,021763
3046,875000	-40,543846
3070,312500	-40,131344
3093,750000	-37,703655
3117,187500	-33,339703
3140,625000	-31,887173
3164,062500	-34,214787
3187,500000	-37,639603
3210,937500	-38,535240
3234,375000	-39,214272
3257,812500	-39,185822
3281,250000	-40,332661
3304,687500	-41,568027
3328,125000	-41,975033
3351,562500	-41,845188
3375,000000	-41,423428
3398,437500	-41,974865
3421,875000	-41,818142
3445,312500	-41,814133
3468,750000	-40,717472
3492,187500	-39,995869
3515,625000	-38,730145
3539,062500	-39,323681
3562,500000	-41,761906
3585,937500	-43,186790
3609,375000	-43,692032
3632,812500	-42,648212
3656,250000	-41,678249
3679,687500	-42,405888
3703,125000	-42,197876
3726,562500	-42,690868
3750,000000	-42,930027
3773,437500	-43,305744
3796,875000	-43,197094
3820,312500	-42,399887
3843,750000	-42,205059
3867,187500	-42,024590
3890,625000	-42,053932
3914,062500	-39,550476
3937,500000	-40,407253
3960,937500	-43,863029
3984,375000	-45,247360
4007,812500	-45,006424
4031,250000	-44,493790
4054,687500	-43,859150
4078,125000	-43,026005
4101,562500	-42,619381
4125,000000	-42,884743
4148,437500	-42,960365
4171,875000	-42,183887
4195,312500	-41,134670
4218,750000	-41,434467
4242,187500	-43,425697
4265,625000	-43,836033
4289,062500	-42,955772
4312,500000	-41,317871
4335,937500	-42,415607
4359,375000	-42,924114
4382,812500	-42,515533
4406,250000	-41,733353
4429,687500	-41,939194
4453,125000	-42,825039
4476,562500	-43,425728
4500,000000	-42,671680
4523,437500	-41,821346
4546,875000	-41,678261
4570,312500	-43,177170
4593,750000	-44,134628
4617,187500	-44,519421
4640,625000	-43,837265
4664,062500	-41,825989
4687,500000	-41,008862
4710,937500	-42,241295
4734,375000	-43,088848
4757,812500	-43,574783
4781,250000	-44,128929
4804,687500	-44,625095
4828,125000	-44,964993
4851,562500	-44,711025
4875,000000	-43,810577
4898,437500	-43,095390
4921,875000	-43,998280
4945,312500	-44,430988
4968,750000	-44,661537
4992,187500	-45,660278
5015,625000	-46,196152
5039,062500	-46,568176
5062,500000	-45,632736
5085,937500	-44,423405
5109,375000	-44,557091
5132,812500	-45,236717
5156,250000	-45,253551
5179,687500	-45,248611
5203,125000	-44,652924
5226,562500	-43,904228
5250,000000	-43,635021
5273,437500	-44,111576
5296,875000	-44,063038
5320,312500	-43,357571
5343,750000	-43,895981
5367,187500	-44,930882
5390,625000	-45,175583
5414,062500	-45,112259
5437,500000	-44,638153
5460,937500	-43,030197
5484,375000	-44,421177
5507,812500	-44,670692
5531,250000	-44,760929
5554,687500	-45,036369
5578,125000	-45,195522
5601,562500	-44,592056
5625,000000	-43,660061
5648,437500	-44,498753
5671,875000	-44,569332
5695,312500	-44,271629
5718,750000	-43,131893
5742,187500	-42,251144
5765,625000	-44,123848
5789,062500	-45,354031
5812,500000	-45,730042
5835,937500	-45,218925
5859,375000	-44,275459
5882,812500	-43,469360
5906,250000	-43,851223
5929,687500	-45,118233
5953,125000	-45,390148
5976,562500	-43,478642
6000,000000	-42,963554
6023,437500	-42,731594
6046,875000	-43,270222
6070,312500	-43,683971
6093,750000	-44,203545
6117,187500	-43,946777
6140,625000	-43,953419
6164,062500	-43,508896
6187,500000	-43,313278
6210,937500	-43,861668
6234,375000	-43,381489
6257,812500	-43,208233
6281,250000	-43,663746
6304,687500	-43,207581
6328,125000	-43,603600
6351,562500	-43,998001
6375,000000	-43,497498
6398,437500	-43,594967
6421,875000	-43,304699
6445,312500	-43,986950
6468,750000	-44,088757
6492,187500	-43,842983
6515,625000	-44,031315
6539,062500	-43,929558
6562,500000	-43,265911
6585,937500	-43,757458
6609,375000	-43,833633
6632,812500	-43,701794
6656,250000	-43,490551
6679,687500	-43,404209
6703,125000	-43,788750
6726,562500	-43,493053
6750,000000	-42,544334
6773,437500	-42,903679
6796,875000	-42,861980
6820,312500	-42,369057
6843,750000	-43,095024
6867,187500	-43,482441
6890,625000	-43,759884
6914,062500	-43,389069
6937,500000	-42,479843
6960,937500	-42,460224
6984,375000	-42,404270
7007,812500	-41,549149
7031,250000	-42,343994
7054,687500	-42,531586
7078,125000	-41,501713
7101,562500	-41,758877
7125,000000	-41,828484
7148,437500	-42,395622
7171,875000	-42,495186
7195,312500	-42,499599
7218,750000	-42,522152
7242,187500	-42,451366
7265,625000	-40,681675
7289,062500	-41,197300
7312,500000	-42,204224
7335,937500	-42,420795
7359,375000	-41,825962
7382,812500	-41,486088
7406,250000	-41,293564
7429,687500	-41,871712
7453,125000	-42,791458
7476,562500	-42,475483
7500,000000	-41,753399
7523,437500	-42,059841
7546,875000	-41,865101
7570,312500	-41,884876
7593,750000	-42,215454
7617,187500	-42,274803
7640,625000	-41,692776
7664,062500	-41,628311
7687,500000	-41,775246
7710,937500	-41,973015
7734,375000	-43,395916
7757,812500	-43,681305
7781,250000	-42,368336
7804,687500	-41,865589
7828,125000	-41,759571
7851,562500	-42,104191
7875,000000	-42,542091
7898,437500	-42,829033
7921,875000	-42,867329
7945,312500	-42,392979
7968,750000	-42,321476
7992,187500	-42,953377
8015,625000	-43,715263
8039,062500	-43,682083
8062,500000	-43,001492
8085,937500	-42,610729
8109,375000	-42,187702
8132,812500	-41,516113
8156,250000	-42,067856
8179,687500	-42,639568
8203,125000	-42,236912
8226,562500	-42,148102
8250,000000	-42,178757
8273,437500	-41,809738
8296,875000	-42,138462
8320,312500	-42,544205
8343,750000	-42,093987
8367,187500	-41,901691
8390,625000	-42,282345
8414,062500	-42,672569
8437,500000	-42,772709
8460,937500	-43,374584
8484,375000	-43,188854
8507,812500	-43,095554
8531,250000	-43,388252
8554,687500	-43,928822
8578,125000	-43,772842
8601,562500	-43,531403
8625,000000	-43,410641
8648,437500	-43,301891
8671,875000	-44,002495
8695,312500	-44,057838
8718,750000	-43,905376
8742,187500	-44,105663
8765,625000	-44,187531
8789,062500	-44,137924
8812,500000	-43,685326
8835,937500	-44,127399
8859,375000	-44,284115
8882,812500	-44,071285
8906,250000	-43,917473
8929,687500	-44,123909
8953,125000	-43,925129
8976,562500	-42,784683
9000,000000	-43,004009
9023,437500	-43,321190
9046,875000	-43,378899
9070,312500	-43,423683
9093,750000	-43,643734
9117,187500	-43,793049
9140,625000	-43,748390
9164,062500	-43,797512
9187,500000	-43,782574
9210,937500	-44,452267
9234,375000	-43,824524
9257,812500	-43,675068
9281,250000	-44,215935
9304,687500	-44,184483
9328,125000	-44,324730
9351,562500	-44,458607
9375,000000	-44,378098
9398,437500	-44,097240
9421,875000	-44,429939
9445,312500	-44,345272
9468,750000	-44,384827
9492,187500	-44,515091
9515,625000	-44,244965
9539,062500	-44,092915
9562,500000	-43,594860
9585,937500	-43,877762
9609,375000	-44,670246
9632,812500	-44,846760
9656,250000	-45,037354
9679,687500	-44,583500
9703,125000	-44,076180
9726,562500	-43,805794
9750,000000	-44,172237
9773,437500	-44,569893
9796,875000	-44,667339
9820,312500	-44,797295
9843,750000	-44,230896
9867,187500	-44,359962
9890,625000	-44,743637
9914,062500	-44,817711
9937,500000	-44,804642
9960,937500	-44,741707
9984,375000	-44,720844
10007,812500	-44,496727
10031,250000	-44,081470
10054,687500	-44,454865
10078,125000	-44,989834
10101,562500	-45,094234
10125,000000	-44,518082
10148,437500	-44,466022
10171,875000	-44,840340
10195,312500	-44,488373
10218,750000	-45,058270
10242,187500	-45,004612
10265,625000	-44,778744
10289,062500	-44,936218
10312,500000	-45,913448
10335,937500	-45,707607
10359,375000	-44,984013
10382,812500	-45,143581
10406,250000	-44,798244
10429,687500	-44,392494
10453,125000	-44,698696
10476,562500	-44,624954
10500,000000	-45,074692
10523,437500	-44,849598
10546,875000	-44,317646
10570,312500	-43,955971
10593,750000	-43,979698
10617,187500	-44,468777
10640,625000	-44,943821
10664,062500	-45,457020
10687,500000	-45,388390
10710,937500	-44,983551
10734,375000	-45,201721
10757,812500	-45,197540
10781,250000	-44,958588
10804,687500	-44,836720
10828,125000	-45,093002
10851,562500	-45,022995
10875,000000	-44,937061
10898,437500	-44,994701
10921,875000	-44,342907
10945,312500	-44,220535
10968,750000	-44,584965
10992,187500	-45,598080
11015,625000	-45,645306
11039,062500	-45,009605
11062,500000	-44,996361
11085,937500	-45,716812
11109,375000	-46,256714
11132,812500	-46,283871
11156,250000	-46,166573
11179,687500	-46,261738
11203,125000	-47,006050
11226,562500	-47,335506
11250,000000	-47,409897
11273,437500	-47,596848
11296,875000	-47,792076
11320,312500	-47,336952
11343,750000	-46,732067
11367,187500	-47,030384
11390,625000	-47,904079
11414,062500	-47,956047
11437,500000	-48,171562
11460,937500	-48,068142
11484,375000	-48,411575
11507,812500	-48,383488
11531,250000	-47,670990
11554,687500	-48,180573
11578,125000	-47,683830
11601,562500	-46,931522
11625,000000	-47,504238
11648,437500	-47,553295
11671,875000	-46,493549
11695,312500	-46,731949
11718,750000	-47,798313
11742,187500	-47,607357
11765,625000	-47,439484
11789,062500	-46,553581
11812,500000	-46,710686
11835,937500	-46,484753
11859,375000	-45,677246
11882,812500	-46,032036
11906,250000	-45,755470
11929,687500	-46,536396
11953,125000	-46,535755
11976,562500	-45,458328
12000,000000	-45,274265
12023,437500	-44,763824
12046,875000	-45,273582
12070,312500	-45,746418
12093,750000	-45,425579
12117,187500	-45,342770
12140,625000	-45,457127
12164,062500	-46,120213
12187,500000	-46,828579
12210,937500	-46,700249
12234,375000	-47,322960
12257,812500	-46,850704
12281,250000	-47,182240
12304,687500	-48,031830
12328,125000	-48,163769
12351,562500	-47,747616
12375,000000	-47,243462
12398,437500	-46,439415
12421,875000	-46,899387
12445,312500	-47,021889
12468,750000	-46,746029
12492,187500	-46,370899
12515,625000	-46,213047
12539,062500	-46,974194
12562,500000	-46,529339
12585,937500	-46,202198
12609,375000	-47,160774
12632,812500	-46,903645
12656,250000	-46,725334
12679,687500	-46,784199
12703,125000	-47,602474
12726,562500	-48,193283
12750,000000	-47,442165
12773,437500	-47,319187
12796,875000	-48,020004
12820,312500	-48,447151
12843,750000	-47,732983
12867,187500	-47,831577
12890,625000	-48,660828
12914,062500	-48,223404
12937,500000	-48,013386
12960,937500	-47,576038
12984,375000	-47,846951
13007,812500	-49,051357
13031,250000	-49,754223
13054,687500	-49,155830
13078,125000	-49,010590
13101,562500	-48,787945
13125,000000	-48,545929
13148,437500	-49,184662
13171,875000	-48,770317
13195,312500	-48,930412
13218,750000	-48,551262
13242,187500	-49,179592
13265,625000	-49,883915
13289,062500	-50,397449
13312,500000	-50,400738
13335,937500	-49,680027
13359,375000	-50,072273
13382,812500	-50,373959
13406,250000	-50,362278
13429,687500	-50,192654
13453,125000	-49,772594
13476,562500	-50,783531
13500,000000	-51,057564
13523,437500	-50,170509
13546,875000	-49,656109
13570,312500	-49,444332
13593,750000	-49,922791
13617,187500	-50,099541
13640,625000	-49,368946
13664,062500	-49,506355
13687,500000	-49,136700
13710,937500	-49,146484
13734,375000	-50,094627
13757,812500	-50,139164
13781,250000	-49,655140
13804,687500	-48,771080
13828,125000	-48,461372
13851,562500	-48,932369
13875,000000	-49,659939
13898,437500	-49,577614
13921,875000	-49,248592
13945,312500	-49,245838
13968,750000	-49,799858
13992,187500	-50,441025
14015,625000	-50,293842
14039,062500	-49,441307
14062,500000	-49,897343
14085,937500	-50,165779
14109,375000	-50,636711
14132,812500	-50,687759
14156,250000	-50,767559
14179,687500	-50,684559
14203,125000	-51,279003
14226,562500	-51,544582
14250,000000	-51,812183
14273,437500	-51,393013
14296,875000	-51,714367
14320,312500	-51,987362
14343,750000	-51,429325
14367,187500	-51,136570
14390,625000	-51,887516
14414,062500	-52,981487
14437,500000	-52,984474
14460,937500	-51,620876
14484,375000	-51,105816
14507,812500	-51,516853
14531,250000	-51,646660
14554,687500	-51,259277
14578,125000	-51,213978
14601,562500	-51,261875
14625,000000	-51,263187
14648,437500	-50,957413
14671,875000	-51,257298
14695,312500	-51,586277
14718,750000	-51,327442
14742,187500	-51,814186
14765,625000	-51,343552
14789,062500	-51,259342
14812,500000	-51,945118
14835,937500	-52,200073
14859,375000	-53,326694
14882,812500	-52,771320
14906,250000	-52,668888
14929,687500	-52,889549
14953,125000	-52,944534
14976,562500	-53,073181
15000,000000	-53,350769
15023,437500	-53,363117
15046,875000	-53,817795
15070,312500	-53,703999
15093,750000	-53,763882
15117,187500	-53,520866
15140,625000	-54,554710
15164,062500	-54,537628
15187,500000	-53,878864
15210,937500	-53,913498
15234,375000	-53,273396
15257,812500	-53,413181
15281,250000	-53,578812
15304,687500	-53,917439
15328,125000	-53,869141
15351,562500	-53,555325
15375,000000	-53,204376
15398,437500	-53,615276
15421,875000	-54,074001
15445,312500	-54,644176
15468,750000	-55,080597
15492,187500	-55,387192
15515,625000	-56,002193
15539,062500	-55,530293
15562,500000	-55,507206
15585,937500	-56,002716
15609,375000	-55,905457
15632,812500	-54,972164
15656,250000	-55,441818
15679,687500	-56,103165
15703,125000	-56,680531
15726,562500	-57,268764
15750,000000	-56,650406
15773,437500	-56,950333
15796,875000	-57,591549
15820,312500	-57,011646
15843,750000	-55,976456
15867,187500	-55,022121
15890,625000	-54,998993
15914,062500	-55,135128
15937,500000	-54,223038
15960,937500	-54,340782
15984,375000	-54,669434
16007,812500	-55,375683
16031,250000	-56,055752
16054,687500	-56,253437
16078,125000	-56,696930
16101,562500	-57,148060
16125,000000	-56,822334
16148,437500	-56,829697
16171,875000	-57,424641
16195,312500	-57,357513
16218,750000	-57,290115
16242,187500	-57,454617
16265,625000	-57,922073
16289,062500	-58,220978
16312,500000	-57,802769
16335,937500	-58,321262
16359,375000	-58,797337
16382,812500	-59,293537
16406,250000	-59,439743
16429,687500	-59,402260
16453,125000	-59,304996
16476,562500	-58,755692
16500,000000	-59,128860
16523,437500	-60,905121
16546,875000	-64,431572
16570,312500	-70,643585
16593,750000	-73,179527
16617,187500	-75,006073
16640,625000	-76,670189
16664,062500	-78,688942
16687,500000	-80,106537
16710,937500	-80,231956
16734,375000	-81,023460
16757,812500	-81,615250
16781,250000	-81,425774
16804,687500	-81,373886
16828,125000	-81,191887
16851,562500	-81,995720
16875,000000	-81,148972
16898,437500	-80,979469
16921,875000	-81,520416
16945,312500	-81,351013
16968,750000	-81,608620
16992,187500	-81,487495
17015,625000	-81,175407
17039,062500	-82,562675
17062,500000	-82,209297
17085,937500	-81,666565
17109,375000	-81,666397
17132,812500	-81,741158
17156,250000	-81,710968
17179,687500	-81,309395
17203,125000	-81,166206
17226,562500	-81,002136
17250,000000	-80,966553
17273,437500	-81,720772
17296,875000	-81,978218
17320,312500	-83,026718
17343,750000	-82,320618
17367,187500	-82,106697
17390,625000	-82,866661
17414,062500	-83,073463
17437,500000	-82,850243
17460,937500	-82,010353
17484,375000	-81,766907
17507,812500	-82,530914
17531,250000	-82,698578
17554,687500	-82,211311
17578,125000	-83,329140
17601,562500	-83,935097
17625,000000	-83,501503
17648,437500	-82,577736
17671,875000	-82,374039
17695,312500	-82,547424
17718,750000	-82,876228
17742,187500	-82,793320
17765,625000	-83,301704
17789,062500	-82,623878
17812,500000	-82,979126
17835,937500	-81,816254
17859,375000	-81,633957
17882,812500	-82,891815
17906,250000	-83,541672
17929,687500	-82,599930
17953,125000	-82,781990
17976,562500	-82,194550
18000,000000	-82,460388
18023,437500	-84,905777
18046,875000	-85,074059
18070,312500	-83,845871
18093,750000	-83,343597
18117,187500	-82,236656
18140,625000	-82,282928
18164,062500	-82,971741
18187,500000	-82,138374
18210,937500	-83,371635
18234,375000	-84,502419
18257,812500	-83,743248
18281,250000	-84,474052
18304,687500	-83,587311
18328,125000	-84,019402
18351,562500	-83,458687
18375,000000	-82,210236
18398,437500	-82,802383
18421,875000	-83,818604
18445,312500	-83,998909
18468,750000	-84,320534
18492,187500	-84,003601
18515,625000	-83,495522
18539,062500	-82,899956
18562,500000	-82,752464
18585,937500	-83,040993
18609,375000	-83,165169
18632,812500	-83,429184
18656,250000	-84,182533
18679,687500	-84,237564
18703,125000	-85,148003
18726,562500	-85,186729
18750,000000	-84,500648
18773,437500	-84,811920
18796,875000	-85,011093
18820,312500	-84,874352
18843,750000	-85,433601
18867,187500	-86,684456
18890,625000	-87,260078
18914,062500	-86,513992
18937,500000	-85,227859
18960,937500	-84,653122
18984,375000	-84,866432
19007,812500	-84,971527
19031,250000	-83,616165
19054,687500	-84,089890
19078,125000	-84,408211
19101,562500	-84,990898
19125,000000	-85,733543
19148,437500	-84,908707
19171,875000	-83,914871
19195,312500	-85,021255
19218,750000	-86,418198
19242,187500	-86,278419
19265,625000	-85,539169
19289,062500	-84,740944
19312,500000	-84,995453
19335,937500	-86,161903
19359,375000	-86,555473
19382,812500	-86,146431
19406,250000	-86,125450
19429,687500	-86,525558
19453,125000	-86,658234
19476,562500	-86,638123
19500,000000	-86,365471
19523,437500	-86,087936
19546,875000	-85,802238
19570,312500	-85,674767
19593,750000	-86,138596
19617,187500	-87,204819
19640,625000	-87,309105
19664,062500	-86,927986
19687,500000	-86,722313
19710,937500	-87,129982
19734,375000	-88,039406
19757,812500	-87,416939
19781,250000	-86,713875
19804,687500	-87,274117
19828,125000	-87,995033
19851,562500	-88,096001
19875,000000	-89,452370
19898,437500	-90,012070
19921,875000	-89,589417
19945,312500	-89,780891
19968,750000	-90,214264
19992,187500	-89,872360
20015,625000	-89,288582
20039,062500	-89,623474
20062,500000	-89,677055
20085,937500	-89,899513
20109,375000	-90,452614
20132,812500	-91,043854
20156,250000	-90,737694
20179,687500	-91,188408
20203,125000	-91,349510
20226,562500	-92,097862
20250,000000	-91,212502
20273,437500	-91,366295
20296,875000	-91,581886
20320,312500	-91,036713
20343,750000	-91,417076
20367,187500	-91,383553
20390,625000	-90,687958
20414,062500	-90,140198
20437,500000	-90,977615
20460,937500	-92,356735
20484,375000	-93,132965
20507,812500	-93,735863
20531,250000	-93,740776
20554,687500	-94,384300
20578,125000	-95,004150
20601,562500	-93,894882
20625,000000	-92,163200
20648,437500	-92,257027
20671,875000	-92,604294
20695,312500	-92,573547
20718,750000	-92,496025
20742,187500	-93,177979
20765,625000	-94,795723
20789,062500	-95,128052
20812,500000	-94,851814
20835,937500	-94,134605
20859,375000	-93,128601
20882,812500	-92,924713
20906,250000	-93,480522
20929,687500	-93,734749
20953,125000	-94,734383
20976,562500	-95,654427
21000,000000	-95,847572
21023,437500	-95,356499
21046,875000	-94,977394
21070,312500	-95,232986
21093,750000	-95,509888
21117,187500	-95,640572
21140,625000	-95,585892
21164,062500	-96,725693
21187,500000	-97,012672
21210,937500	-96,933334
21234,375000	-97,215714
21257,812500	-97,044991
21281,250000	-97,033241
21304,687500	-95,787415
21328,125000	-96,515373
21351,562500	-96,929260
21375,000000	-97,341850
21398,437500	-96,680084
21421,875000	-95,573463
21445,312500	-96,318466
21468,750000	-96,742165
21492,187500	-96,600739
21515,625000	-96,414658
21539,062500	-97,217201
21562,500000	-97,754135
21585,937500	-97,703163
21609,375000	-97,565491
21632,812500	-97,253166
21656,250000	-97,742317
21679,687500	-97,520599
21703,125000	-97,496353
21726,562500	-97,409012
21750,000000	-97,699860
21773,437500	-98,414154
21796,875000	-99,144035
21820,312500	-98,866379
21843,750000	-98,809799
21867,187500	-98,840492
21890,625000	-97,843727
21914,062500	-97,405052
21937,500000	-97,631386
21960,937500	-97,553627
21984,375000	-97,094429
22007,812500	-97,130302
22031,250000	-97,702721
22054,687500	-97,781937
22078,125000	-98,717506
22101,562500	-97,995316
22125,000000	-97,381279
22148,437500	-97,861870
22171,875000	-97,744858
22195,312500	-97,459091
22218,750000	-97,893066
22242,187500	-98,231293
22265,625000	-98,588509
22289,062500	-99,205315
22312,500000	-98,631744
22335,937500	-98,725357
22359,375000	-98,608040
22382,812500	-98,138542
22406,250000	-98,643173
22429,687500	-98,665779
22453,125000	-99,004234
22476,562500	-98,970467
22500,000000	-99,263779
22523,437500	-99,217209
22546,875000	-99,521103
22570,312500	-99,983345
22593,750000	-99,379616
22617,187500	-99,670555
22640,625000	-99,647423
22664,062500	-99,082031
22687,500000	-98,243279
22710,937500	-98,690834
22734,375000	-99,012184
22757,812500	-98,904724
22781,250000	-99,446762
22804,687500	-99,910278
22828,125000	-100,436035
22851,562500	-100,950836
22875,000000	-100,490128
22898,437500	-100,109138
22921,875000	-100,226799
22945,312500	-100,429413
22968,750000	-100,581413
22992,187500	-101,006760
23015,625000	-100,860428
23039,062500	-101,469765
23062,500000	-102,262932
23085,937500	-102,697968
23109,375000	-102,751244
23132,812500	-102,997307
23156,250000	-102,887985
23179,687500	-102,114616
23203,125000	-102,378075
23226,562500	-101,934937
23250,000000	-101,582657
23273,437500	-102,001007
23296,875000	-102,408882
23320,312500	-102,964340
23343,750000	-103,897804
23367,187500	-103,882996
23390,625000	-104,041649
23414,062500	-104,092133
23437,500000	-103,868927
23460,937500	-103,725456
23484,375000	-103,758560
23507,812500	-103,772705
23531,250000	-104,206413
23554,687500	-104,408821
23578,125000	-104,465996
23601,562500	-104,931709
23625,000000	-105,664268
23648,437500	-106,007172
23671,875000	-106,593063
23695,312500	-106,870094
23718,750000	-106,947151
23742,187500	-107,194595
23765,625000	-107,267090
23789,062500	-107,035446
23812,500000	-107,008522
23835,937500	-107,173378
23859,375000	-107,235176
23882,812500	-107,443527
23906,250000	-107,991730
23929,687500	-108,047455
23953,125000	-108,114357
23976,562500	-108,333389
24000,000000	-108,476799
24023,437500	-108,580681
24046,875000	-108,710365
24070,312500	-108,801697
24093,750000	-109,048584
24117,187500	-109,172913
24140,625000	-109,568565
24164,062500	-109,555893
24187,500000	-109,604134
24210,937500	-109,821594
24234,375000	-110,129456
24257,812500	-110,010735
24281,250000	-110,315025
24304,687500	-110,356537
24328,125000	-110,444862
24351,562500	-110,262199
24375,000000	-110,550346
24398,437500	-110,316971
24421,875000	-110,374771
24445,312500	-110,276054
24468,750000	-110,646057
24492,187500	-110,504662
24515,625000	-110,658646
24539,062500	-110,485916
24562,500000	-110,703148
24585,937500	-110,552452
24609,375000	-110,639046
24632,812500	-110,444664
24656,250000	-110,622192
24679,687500	-110,421989
24703,125000	-110,850769
24726,562500	-110,639542
24750,000000	-110,701599
24773,437500	-110,531631
24796,875000	-110,731300
24820,312500	-110,541908
24843,750000	-110,871864
24867,187500	-110,556641
24890,625000	-110,747643
24914,062500	-110,618477
24937,500000	-110,719055
24960,937500	-110,429291
24984,375000	-110,857414
25007,812500	-110,651070
25031,250000	-110,900803
25054,687500	-110,706818
25078,125000	-110,985321
25101,562500	-110,665100
25125,000000	-110,888214
25148,437500	-110,670982
25171,875000	-110,903412
25195,312500	-110,556686
25218,750000	-110,847778
25242,187500	-110,700005
25265,625000	-110,970711
25289,062500	-110,639412
25312,500000	-111,009689
25335,937500	-110,710579
25359,375000	-110,884781
25382,812500	-110,565369
25406,250000	-110,832588
25429,687500	-110,483887
25453,125000	-110,845825
25476,562500	-110,522690
25500,000000	-110,899330
25523,437500	-110,665749
25546,875000	-111,141937
25570,312500	-110,804115
25593,750000	-110,922661
25617,187500	-110,557999
25640,625000	-110,936256
25664,062500	-110,630554
25687,500000	-110,961670
25710,937500	-110,706787
25734,375000	-110,977982
25757,812500	-110,639877
25781,250000	-110,921776
25804,687500	-110,692703
25828,125000	-111,090050
25851,562500	-110,633827
25875,000000	-110,986214
25898,437500	-110,697853
25921,875000	-110,981934
25945,312500	-110,535484
25968,750000	-110,870567
25992,187500	-110,576195
26015,625000	-110,965446
26039,062500	-110,710655
26062,500000	-111,052727
26085,937500	-110,616104
26109,375000	-110,869476
26132,812500	-110,574799
26156,250000	-111,139236
26179,687500	-110,772766
26203,125000	-110,972641
26226,562500	-110,624229
26250,000000	-111,017181
26273,437500	-110,628990
26296,875000	-110,942848
26320,312500	-110,558022
26343,750000	-110,904877
26367,187500	-110,529747
26390,625000	-110,940765
26414,062500	-110,564659
26437,500000	-111,021965
26460,937500	-110,575523
26484,375000	-110,958252
26507,812500	-110,471878
26531,250000	-110,924812
26554,687500	-110,501671
26578,125000	-110,953018
26601,562500	-110,517090
26625,000000	-110,894592
26648,437500	-110,492973
26671,875000	-110,865799
26695,312500	-110,460785
26718,750000	-111,032768
26742,187500	-110,577011
26765,625000	-110,976357
26789,062500	-110,503265
26812,500000	-111,055344
26835,937500	-110,630768
26859,375000	-111,092201
26882,812500	-110,570839
26906,250000	-111,030266
26929,687500	-110,518448
26953,125000	-111,027359
26976,562500	-110,547325
27000,000000	-110,982483
27023,437500	-110,501106
27046,875000	-110,882065
27070,312500	-110,407631
27093,750000	-111,025986
27117,187500	-110,532562
27140,625000	-110,869766
27164,062500	-110,391525
27187,500000	-110,890648
27210,937500	-110,457848
27234,375000	-111,089149
27257,812500	-110,497147
27281,250000	-110,973343
27304,687500	-110,475616
27328,125000	-111,118118
27351,562500	-110,515099
27375,000000	-110,965904
27398,437500	-110,498695
27421,875000	-111,020706
27445,312500	-110,464203
27468,750000	-110,948738
27492,187500	-110,414597
27515,625000	-111,009949
27539,062500	-110,497612
27562,500000	-111,041016
27585,937500	-110,498238
27609,375000	-110,960587
27632,812500	-110,409187
27656,250000	-110,960808
27679,687500	-110,434883
27703,125000	-110,891365
27726,562500	-110,314453
27750,000000	-110,892441
27773,437500	-110,436272
27796,875000	-111,005241
27820,312500	-110,359322
27843,750000	-111,034477
27867,187500	-110,466431
27890,625000	-111,025085
27914,062500	-110,466522
27937,500000	-110,825920
27960,937500	-110,266716
27984,375000	-111,041466
28007,812500	-110,434631
28031,250000	-110,905479
28054,687500	-110,354263
28078,125000	-111,121101
28101,562500	-110,527298
28125,000000	-111,126076
28148,437500	-110,455200
28171,875000	-111,072388
28195,312500	-110,494392
28218,750000	-111,118309
28242,187500	-110,578087
28265,625000	-111,133377
28289,062500	-110,508018
28312,500000	-111,161591
28335,937500	-110,478722
28359,375000	-110,951736
28382,812500	-110,237961
28406,250000	-111,074501
28429,687500	-110,531120
28453,125000	-111,169083
28476,562500	-110,472183
28500,000000	-110,992119
28523,437500	-110,321754
28546,875000	-110,972710
28570,312500	-110,384537
28593,750000	-111,076164
28617,187500	-110,445778
28640,625000	-110,953217
28664,062500	-110,310524
28687,500000	-110,945724
28710,937500	-110,348938
28734,375000	-111,175278
28757,812500	-110,384125
28781,250000	-111,052917
28804,687500	-110,375381
28828,125000	-111,024010
28851,562500	-110,405106
28875,000000	-111,131653
28898,437500	-110,528923
28921,875000	-111,175529
28945,312500	-110,462425
28968,750000	-111,062164
28992,187500	-110,481598
29015,625000	-111,098984
29039,062500	-110,309319
29062,500000	-111,026253
29085,937500	-110,328423
29109,375000	-110,932228
29132,812500	-110,306328
29156,250000	-111,139198
29179,687500	-110,336464
29203,125000	-111,021248
29226,562500	-110,393135
29250,000000	-111,048332
29273,437500	-110,253494
29296,875000	-111,066635
29320,312500	-110,389595
29343,750000	-111,138443
29367,187500	-110,388931
29390,625000	-111,175697
29414,062500	-110,405899
29437,500000	-111,125008
29460,937500	-110,454559
29484,375000	-111,285812
29507,812500	-110,352341
29531,250000	-111,059998
29554,687500	-110,374390
29578,125000	-111,063156
29601,562500	-110,273697
29625,000000	-111,032677
29648,437500	-110,357803
29671,875000	-111,040466
29695,312500	-110,284897
29718,750000	-111,072182
29742,187500	-110,395958
29765,625000	-111,186295
29789,062500	-110,351608
29812,500000	-111,114601
29835,937500	-110,371346
29859,375000	-111,075043
29882,812500	-110,344376
29906,250000	-111,153709
29929,687500	-110,395073
29953,125000	-111,140785
29976,562500	-110,250870
30000,000000	-111,092957
30023,437500	-110,331352
30046,875000	-111,036652
30070,312500	-110,265839
30093,750000	-110,972221
30117,187500	-110,191444
30140,625000	-111,020561
30164,062500	-110,245323
30187,500000	-110,921074
30210,937500	-110,220184
30234,375000	-111,103050
30257,812500	-110,293816
30281,250000	-111,072075
30304,687500	-110,327339
30328,125000	-111,274399
30351,562500	-110,368111
30375,000000	-111,051216
30398,437500	-110,265671
30421,875000	-111,178047
30445,312500	-110,358101
30468,750000	-111,088806
30492,187500	-110,366562
30515,625000	-111,260170
30539,062500	-110,499054
30562,500000	-111,247643
30585,937500	-110,290092
30609,375000	-111,174210
30632,812500	-110,379578
30656,250000	-111,142448
30679,687500	-110,406860
30703,125000	-111,192108
30726,562500	-110,368576
30750,000000	-111,277390
30773,437500	-110,351120
30796,875000	-111,226151
30820,312500	-110,314125
30843,750000	-111,169456
30867,187500	-110,247963
30890,625000	-111,093536
30914,062500	-110,278343
30937,500000	-111,168297
30960,937500	-110,280579
30984,375000	-111,048767
31007,812500	-110,242912
31031,250000	-111,296539
31054,687500	-110,357849
31078,125000	-111,246071
31101,562500	-110,360771
31125,000000	-111,227570
31148,437500	-110,337929
31171,875000	-111,307991
31195,312500	-110,340950
31218,750000	-111,173561
31242,187500	-110,356659
31265,625000	-111,117737
31289,062500	-110,288574
31312,500000	-111,225258
31335,937500	-110,232452
31359,375000	-111,153282
31382,812500	-110,312027
31406,250000	-111,244606
31429,687500	-110,241875
31453,125000	-111,105606
31476,562500	-110,269371
31500,000000	-111,188698
31523,437500	-110,258621
31546,875000	-111,171509
31570,312500	-110,320755
31593,750000	-111,194550
31617,187500	-110,230049
31640,625000	-111,230293
31664,062500	-110,417435
31687,500000	-111,381744
31710,937500	-110,352478
31734,375000	-111,194481
31757,812500	-110,150879
31781,250000	-111,165855
31804,687500	-110,285141
31828,125000	-111,264801
31851,562500	-110,310966
31875,000000	-111,231560
31898,437500	-110,266739
31921,875000	-111,169510
31945,312500	-110,287186
31968,750000	-111,267517
31992,187500	-110,286369
32015,625000	-111,188148
32039,062500	-110,300026
32062,500000	-111,302422
32085,937500	-110,261261
32109,375000	-111,262482
32132,812500	-110,236351
32156,250000	-111,291000
32179,687500	-110,124908
32203,125000	-111,238754
32226,562500	-110,313385
32250,000000	-111,291130
32273,437500	-110,299179
32296,875000	-111,275406
32320,312500	-110,270721
32343,750000	-111,190193
32367,187500	-110,193741
32390,625000	-111,197433
32414,062500	-110,157677
32437,500000	-111,303871
32460,937500	-110,269508
32484,375000	-111,208427
32507,812500	-110,207245
32531,250000	-111,288521
32554,687500	-110,296860
32578,125000	-111,317383
32601,562500	-110,245415
32625,000000	-111,374763
32648,437500	-110,233971
32671,875000	-111,261017
32695,312500	-110,426514
32718,750000	-111,239998
32742,187500	-110,126625
32765,625000	-111,339897
32789,062500	-110,324799
32812,500000	-111,295609
32835,937500	-110,236221
32859,375000	-111,294678
32882,812500	-110,262032
32906,250000	-111,289253
32929,687500	-110,196999
32953,125000	-111,270592
32976,562500	-110,268814
33000,000000	-111,365967
33023,437500	-110,357765
33046,875000	-111,346443
33070,312500	-110,262138
33093,750000	-111,167648
33117,187500	-110,109627
33140,625000	-111,254044
33164,062500	-110,162285
33187,500000	-111,327652
33210,937500	-110,200302
33234,375000	-111,286644
33257,812500	-110,222916
33281,250000	-111,250488
33304,687500	-110,100334
33328,125000	-111,184235
33351,562500	-110,201584
33375,000000	-111,254555
33398,437500	-110,102921
33421,875000	-111,194702
33445,312500	-110,012695
33468,750000	-111,304878
33492,187500	-110,272995
33515,625000	-111,241585
33539,062500	-110,159996
33562,500000	-111,323463
33585,937500	-110,242798
33609,375000	-111,245300
33632,812500	-110,153984
33656,250000	-111,327087
33679,687500	-110,156006
33703,125000	-111,386658
33726,562500	-110,211021
33750,000000	-111,233902
33773,437500	-110,104477
33796,875000	-111,317474
33820,312500	-110,154877
33843,750000	-111,180092
33867,187500	-110,188957
33890,625000	-111,342285
33914,062500	-110,200279
33937,500000	-111,304596
33960,937500	-110,168060
33984,375000	-111,273529
34007,812500	-110,110779
34031,250000	-111,342102
34054,687500	-110,310356
34078,125000	-111,516861
34101,562500	-110,281982
34125,000000	-111,181664
34148,437500	-110,047379
34171,875000	-111,241425
34195,312500	-110,174438
34218,750000	-111,334480
34242,187500	-110,263916
34265,625000	-111,239182
34289,062500	-110,171700
34312,500000	-111,372498
34335,937500	-110,210953
34359,375000	-111,326691
34382,812500	-110,080910
34406,250000	-111,345612
34429,687500	-110,067978
34453,125000	-111,288033
34476,562500	-110,184906
34500,000000	-111,186470
34523,437500	-110,007019
34546,875000	-111,433960
34570,312500	-110,287277
34593,750000	-111,308380
34617,187500	-110,123245
34640,625000	-111,275574
34664,062500	-110,117500
34687,500000	-111,404541
34710,937500	-110,221626
34734,375000	-111,349091
34757,812500	-110,166512
34781,250000	-111,390892
34804,687500	-110,195107
34828,125000	-111,411873
34851,562500	-110,287277
34875,000000	-111,502708
34898,437500	-110,165085
34921,875000	-111,533852
34945,312500	-110,267296
34968,750000	-111,401772
34992,187500	-110,215614
35015,625000	-111,317947
35039,062500	-110,168327
35062,500000	-111,366516
35085,937500	-110,109001
35109,375000	-111,541534
35132,812500	-110,190468
35156,250000	-111,287376
35179,687500	-109,978104
35203,125000	-111,307732
35226,562500	-110,217453
35250,000000	-111,416107
35273,437500	-110,282455
35296,875000	-111,611427
35320,312500	-110,332085
35343,750000	-111,383904
35367,187500	-110,153893
35390,625000	-111,389908
35414,062500	-110,126213
35437,500000	-111,394241
35460,937500	-110,204170
35484,375000	-111,446968
35507,812500	-110,150169
35531,250000	-111,518570
35554,687500	-110,175095
35578,125000	-111,326378
35601,562500	-110,242767
35625,000000	-111,450462
35648,437500	-110,106285
35671,875000	-111,432014
35695,312500	-110,131218
35718,750000	-111,348808
35742,187500	-110,070114
35765,625000	-111,315628
35789,062500	-110,219376
35812,500000	-111,425606
35835,937500	-110,024605
35859,375000	-111,388329
35882,812500	-110,098053
35906,250000	-111,354668
35929,687500	-110,126366
35953,125000	-111,430862
35976,562500	-110,067703
36000,000000	-111,378342
36023,437500	-110,098061
36046,875000	-111,242729
36070,312500	-109,988800
36093,750000	-111,517006
36117,187500	-110,256363
36140,625000	-111,380959
36164,062500	-110,066467
36187,500000	-111,484421
36210,937500	-110,139427
36234,375000	-111,397789
36257,812500	-110,149727
36281,250000	-111,362747
36304,687500	-110,103836
36328,125000	-111,398293
36351,562500	-110,150940
36375,000000	-111,509293
36398,437500	-110,087883
36421,875000	-111,251221
36445,312500	-109,966705
36468,750000	-111,406654
36492,187500	-110,106415
36515,625000	-111,483261
36539,062500	-110,131310
36562,500000	-111,422409
36585,937500	-109,985313
36609,375000	-111,370117
36632,812500	-110,121826
36656,250000	-111,478836
36679,687500	-110,168884
36703,125000	-111,424576
36726,562500	-110,125610
36750,000000	-111,466408
36773,437500	-110,065102
36796,875000	-111,450974
36820,312500	-110,015800
36843,750000	-111,410072
36867,187500	-110,080650
36890,625000	-111,498116
36914,062500	-110,139229
36937,500000	-111,496094
36960,937500	-110,089432
36984,375000	-111,382042
37007,812500	-110,128708
37031,250000	-111,437057
37054,687500	-110,142075
37078,125000	-111,532127
37101,562500	-110,084602
37125,000000	-111,528046
37148,437500	-110,170471
37171,875000	-111,482635
37195,312500	-110,067970
37218,750000	-111,370987
37242,187500	-110,020943
37265,625000	-111,503426
37289,062500	-110,277916
37312,500000	-111,575424
37335,937500	-110,201599
37359,375000	-111,466888
37382,812500	-110,208549
37406,250000	-111,485123
37429,687500	-109,930473
37453,125000	-111,421394
37476,562500	-110,085541
37500,000000	-111,318504
37523,437500	-109,998329
37546,875000	-111,389732
37570,312500	-109,917252
37593,750000	-111,467728
37617,187500	-110,057373
37640,625000	-111,512093
37664,062500	-110,137703
37687,500000	-111,593040
37710,937500	-110,184753
37734,375000	-111,401703
37757,812500	-110,065819
37781,250000	-111,563026
37804,687500	-110,200310
37828,125000	-111,453773
37851,562500	-110,026321
37875,000000	-111,377663
37898,437500	-109,955002
37921,875000	-111,523735
37945,312500	-110,158257
37968,750000	-111,598007
37992,187500	-110,062370
38015,625000	-111,453506
38039,062500	-110,099030
38062,500000	-111,416855
38085,937500	-110,077873
38109,375000	-111,525497
38132,812500	-110,051186
38156,250000	-111,408737
38179,687500	-110,068489
38203,125000	-111,447502
38226,562500	-109,913307
38250,000000	-111,414261
38273,437500	-110,012703
38296,875000	-111,445076
38320,312500	-110,075485
38343,750000	-111,528008
38367,187500	-110,105751
38390,625000	-111,413559
38414,062500	-109,999031
38437,500000	-111,460564
38460,937500	-110,069916
38484,375000	-111,426231
38507,812500	-110,105484
38531,250000	-111,419983
38554,687500	-110,087929
38578,125000	-111,517731
38601,562500	-110,084099
38625,000000	-111,367561
38648,437500	-110,058716
38671,875000	-111,552544
38695,312500	-110,029213
38718,750000	-111,504524
38742,187500	-110,029694
38765,625000	-111,438309
38789,062500	-109,986938
38812,500000	-111,444656
38835,937500	-109,995514
38859,375000	-111,489090
38882,812500	-110,095139
38906,250000	-111,455536
38929,687500	-110,063042
38953,125000	-111,610550
38976,562500	-110,106354
39000,000000	-111,551361
39023,437500	-110,128593
39046,875000	-111,488022
39070,312500	-110,129707
39093,750000	-111,563774
39117,187500	-109,972961
39140,625000	-111,476440
39164,062500	-109,930984
39187,500000	-111,665108
39210,937500	-110,233437
39234,375000	-111,539368
39257,812500	-110,062660
39281,250000	-111,450829
39304,687500	-109,942108
39328,125000	-111,441833
39351,562500	-109,988007
39375,000000	-111,523407
39398,437500	-109,956673
39421,875000	-111,416443
39445,312500	-109,990517
39468,750000	-111,497192
39492,187500	-110,079872
39515,625000	-111,621513
39539,062500	-110,113068
39562,500000	-111,628113
39585,937500	-110,081085
39609,375000	-111,384621
39632,812500	-109,923874
39656,250000	-111,576035
39679,687500	-110,074905
39703,125000	-111,508339
39726,562500	-109,999214
39750,000000	-111,537987
39773,437500	-110,048073
39796,875000	-111,580864
39820,312500	-110,121948
39843,750000	-111,524979
39867,187500	-110,049370
39890,625000	-111,695976
39914,062500	-110,095474
39937,500000	-111,721306
39960,937500	-110,071938
39984,375000	-111,572205
40007,812500	-110,096390
40031,250000	-111,699669
40054,687500	-110,126282
40078,125000	-111,663353
40101,562500	-110,028938
40125,000000	-111,547958
40148,437500	-110,108704
40171,875000	-111,692261
40195,312500	-110,097992
40218,750000	-111,494835
40242,187500	-110,015411
40265,625000	-111,561279
40289,062500	-110,090622
40312,500000	-111,547569
40335,937500	-109,935005
40359,375000	-111,430298
40382,812500	-109,996284
40406,250000	-111,431557
40429,687500	-109,894852
40453,125000	-111,584755
40476,562500	-110,043388
40500,000000	-111,536690
40523,437500	-110,097260
40546,875000	-111,662384
40570,312500	-110,068504
40593,750000	-111,588058
40617,187500	-110,005737
40640,625000	-111,667480
40664,062500	-109,956833
40687,500000	-111,400215
40710,937500	-109,879562
40734,375000	-111,494865
40757,812500	-110,092033
40781,250000	-111,662674
40804,687500	-109,977325
40828,125000	-111,505310
40851,562500	-110,006989
40875,000000	-111,727440
40898,437500	-110,111679
40921,875000	-111,647736
40945,312500	-109,913002
40968,750000	-111,574150
40992,187500	-110,109612
41015,625000	-111,544380
41039,062500	-110,088020
41062,500000	-111,565849
41085,937500	-110,000320
41109,375000	-111,500763
41132,812500	-109,926559
41156,250000	-111,584488
41179,687500	-109,988167
41203,125000	-111,612694
41226,562500	-110,073318
41250,000000	-111,395241
41273,437500	-109,912186
41296,875000	-111,592247
41320,312500	-110,021942
41343,750000	-111,484589
41367,187500	-109,942619
41390,625000	-111,483566
41414,062500	-109,993347
41437,500000	-111,726242
41460,937500	-110,116554
41484,375000	-111,633438
41507,812500	-110,118294
41531,250000	-111,818344
41554,687500	-110,137749
41578,125000	-111,548737
41601,562500	-109,984940
41625,000000	-111,543098
41648,437500	-110,053833
41671,875000	-111,623230
41695,312500	-110,021843
41718,750000	-111,600861
41742,187500	-110,018028
41765,625000	-111,452568
41789,062500	-109,909554
41812,500000	-111,521332
41835,937500	-110,070305
41859,375000	-111,628983
41882,812500	-110,063240
41906,250000	-111,551300
41929,687500	-109,975212
41953,125000	-111,675850
41976,562500	-110,029060
42000,000000	-111,540756
42023,437500	-110,017860
42046,875000	-111,549011
42070,312500	-109,891930
42093,750000	-111,623207
42117,187500	-110,124992
42140,625000	-111,705833
42164,062500	-110,073616
42187,500000	-111,617386
42210,937500	-109,914703
42234,375000	-111,486412
42257,812500	-109,891533
42281,250000	-111,623657
42304,687500	-109,989197
42328,125000	-111,735260
42351,562500	-110,130928
42375,000000	-111,709900
42398,437500	-109,996948
42421,875000	-111,629990
42445,312500	-110,102585
42468,750000	-111,591957
42492,187500	-110,015251
42515,625000	-111,579147
42539,062500	-109,931465
42562,500000	-111,580414
42585,937500	-110,009384
42609,375000	-111,601349
42632,812500	-110,042343
42656,250000	-111,659126
42679,687500	-110,027473
42703,125000	-111,601204
42726,562500	-110,017235
42750,000000	-111,634186
42773,437500	-110,039772
42796,875000	-111,645523
42820,312500	-109,950157
42843,750000	-111,645439
42867,187500	-110,067497
42890,625000	-111,637520
42914,062500	-109,937683
42937,500000	-111,567528
42960,937500	-109,944557
42984,375000	-111,549980
43007,812500	-110,030067
43031,250000	-111,600830
43054,687500	-109,949417
43078,125000	-111,468597
43101,562500	-109,808121
43125,000000	-111,633621
43148,437500	-110,199074
43171,875000	-111,777458
43195,312500	-109,979179
43218,750000	-111,554947
43242,187500	-110,020432
43265,625000	-111,731049
43289,062500	-110,230583
43312,500000	-111,728745
43335,937500	-110,027916
43359,375000	-111,605164
43382,812500	-110,047241
43406,250000	-111,528801
43429,687500	-109,978363
43453,125000	-111,634560
43476,562500	-109,908943
43500,000000	-111,571587
43523,437500	-109,951729
43546,875000	-111,718620
43570,312500	-109,955750
43593,750000	-111,627594
43617,187500	-109,896759
43640,625000	-111,655090
43664,062500	-110,045296
43687,500000	-111,655609
43710,937500	-110,055763
43734,375000	-111,620193
43757,812500	-109,912758
43781,250000	-111,547897
43804,687500	-109,847549
43828,125000	-111,489471
43851,562500	-109,989540
43875,000000	-111,576683
43898,437500	-109,872673
43921,875000	-111,611320
43945,312500	-110,092667
43968,750000	-111,508118
43992,187500	-109,884628
44015,625000	-111,525002
44039,062500	-110,022003
44062,500000	-111,555679
44085,937500	-109,920128
44109,375000	-111,685898
44132,812500	-110,023361
44156,250000	-111,673599
44179,687500	-109,892914
44203,125000	-111,640297
44226,562500	-110,049461
44250,000000	-111,623444
44273,437500	-109,913063
44296,875000	-111,666962
44320,312500	-110,064949
44343,750000	-111,661797
44367,187500	-109,938049
44390,625000	-111,644043
44414,062500	-110,083191
44437,500000	-111,790428
44460,937500	-109,980385
44484,375000	-111,602852
44507,812500	-109,957108
44531,250000	-111,513687
44554,687500	-110,056870
44578,125000	-111,602142
44601,562500	-109,906418
44625,000000	-111,626289
44648,437500	-110,028252
44671,875000	-111,705673
44695,312500	-110,108086
44718,750000	-111,684509
44742,187500	-110,062721
44765,625000	-111,709732
44789,062500	-110,000595
44812,500000	-111,452911
44835,937500	-109,771172
44859,375000	-111,583946
44882,812500	-109,943008
44906,250000	-111,579445
44929,687500	-109,942886
44953,125000	-111,568230
44976,562500	-109,991684
45000,000000	-111,653763
45023,437500	-109,890137
45046,875000	-111,520226
45070,312500	-109,888748
45093,750000	-111,674805
45117,187500	-110,084145
45140,625000	-111,629578
45164,062500	-109,899071
45187,500000	-111,649185
45210,937500	-110,007317
45234,375000	-111,598892
45257,812500	-109,960716
45281,250000	-111,702621
45304,687500	-109,966942
45328,125000	-111,589653
45351,562500	-109,886940
45375,000000	-111,724319
45398,437500	-109,999039
45421,875000	-111,699409
45445,312500	-110,001099
45468,750000	-111,696579
45492,187500	-109,995003
45515,625000	-111,595276
45539,062500	-109,991486
45562,500000	-111,582848
45585,937500	-110,043755
45609,375000	-111,595978
45632,812500	-109,849770
45656,250000	-111,661743
45679,687500	-109,979286
45703,125000	-111,674225
45726,562500	-109,929543
45750,000000	-111,801765
45773,437500	-110,104248
45796,875000	-111,658028
45820,312500	-109,842072
45843,750000	-111,681541
45867,187500	-110,131706
45890,625000	-111,590187
45914,062500	-109,840729
45937,500000	-111,605042
45960,937500	-110,087219
45984,375000	-111,831131
46007,812500	-109,852783
46031,250000	-111,640572
46054,687500	-110,039223
46078,125000	-111,721153
46101,562500	-109,987144
46125,000000	-111,783112
46148,437500	-110,005730
46171,875000	-111,785805
46195,312500	-109,991455
46218,750000	-111,721870
46242,187500	-109,981178
46265,625000	-111,620316
46289,062500	-109,886475
46312,500000	-111,575478
46335,937500	-110,117210
46359,375000	-111,787247
46382,812500	-109,993874
46406,250000	-111,651031
46429,687500	-109,868309
46453,125000	-111,452782
46476,562500	-109,859772
46500,000000	-111,714638
46523,437500	-110,101784
46546,875000	-111,792015
46570,312500	-109,930527
46593,750000	-111,660339
46617,187500	-109,991669
46640,625000	-111,723976
46664,062500	-109,993576
46687,500000	-111,563995
46710,937500	-109,818855
46734,375000	-111,634422
46757,812500	-110,079170
46781,250000	-111,759331
46804,687500	-110,053268
46828,125000	-111,689835
46851,562500	-109,861671
46875,000000	-111,603279
46898,437500	-110,100502
46921,875000	-111,637794
46945,312500	-110,012993
46968,750000	-111,619644
46992,187500	-109,943291
47015,625000	-111,600929
47039,062500	-109,999519
47062,500000	-111,669777
47085,937500	-109,917152
47109,375000	-111,587753
47132,812500	-109,994240
47156,250000	-111,674072
47179,687500	-109,917336
47203,125000	-111,650658
47226,562500	-109,842018
47250,000000	-111,459587
47273,437500	-109,819000
47296,875000	-111,636002
47320,312500	-109,914192
47343,750000	-111,639908
47367,187500	-109,950363
47390,625000	-111,638100
47414,062500	-109,902885
47437,500000	-111,692993
47460,937500	-110,020813
47484,375000	-111,702095
47507,812500	-109,894798
47531,250000	-111,661949
47554,687500	-109,856499
47578,125000	-111,489532
47601,562500	-109,880043
47625,000000	-111,593414
47648,437500	-109,957870
47671,875000	-111,691948
47695,312500	-109,956879
47718,750000	-111,744041
47742,187500	-109,944374
47765,625000	-111,630997
47789,062500	-110,075478
47812,500000	-111,650452
47835,937500	-109,933304
47859,375000	-111,590927
47882,812500	-110,022667
47906,250000	-111,512199
47929,687500	-109,927757
47953,125000	-111,548264
47976,562500	-110,035858
